project/m3/sim/cosim.vcd
$date
	Sun May 24 20:02:20 2026
$end
$version
	Icarus Verilog
$end
$timescale
	1ps
$end
$scope module tb_top $end
$var wire 1 ! s_axis_tready $end
$var wire 1 " m_axis_tvalid $end
$var wire 32 # m_axis_tdata [31:0] $end
$var reg 1 $ clk $end
$var reg 1 % m_axis_tready $end
$var reg 1 & rst $end
$var reg 16 ' s_axis_tdata [15:0] $end
$var reg 1 ( s_axis_tvalid $end
$var integer 32 ) error_count [31:0] $end
$scope module dut $end
$var wire 1 $ clk $end
$var wire 1 % m_axis_tready $end
$var wire 1 & rst $end
$var wire 16 * s_axis_tdata [15:0] $end
$var wire 1 ( s_axis_tvalid $end
$var wire 1 ! s_axis_tready $end
$var wire 1 " m_axis_tvalid $end
$var wire 32 + m_axis_tdata [31:0] $end
$var wire 1 , core_valid_out $end
$var wire 1 - core_valid_in $end
$var wire 32 . core_result [31:0] $end
$var wire 8 / core_b_in [7:0] $end
$var wire 8 0 core_a_in [7:0] $end
$scope module core_inst $end
$var wire 1 $ clk $end
$var wire 32 1 result [31:0] $end
$var wire 1 & rst $end
$var wire 1 , valid_out $end
$var wire 1 - valid_in $end
$var wire 8 2 b_in [7:0] $end
$var wire 8 3 a_in [7:0] $end
$var reg 32 4 accumulator [31:0] $end
$var reg 1 5 out_flag $end
$upscope $end
$scope module intf_inst $end
$var wire 1 $ clk $end
$var wire 32 6 core_result [31:0] $end
$var wire 1 - core_valid_in $end
$var wire 1 , core_valid_out $end
$var wire 1 % m_axis_tready $end
$var wire 1 & rst $end
$var wire 16 7 s_axis_tdata [15:0] $end
$var wire 1 ! s_axis_tready $end
$var wire 1 ( s_axis_tvalid $end
$var wire 8 8 core_b_in [7:0] $end
$var wire 8 9 core_a_in [7:0] $end
$var reg 32 : m_axis_tdata [31:0] $end
$var reg 1 " m_axis_tvalid $end
$upscope $end
$upscope $end
$upscope $end
$enddefinitions $end
$comment Show the parameter values. $end
$dumpall
$end
#0
$dumpvars
bx :
b0 9
b0 8
b0 7
bx 6
x5
bx 4
b0 3
b0 2
bx 1
b0 0
b0 /
bx .
0-
x,
bx +
b0 *
b0 )
0(
b0 '
1&
0%
0$
bx #
x"
x!
$end
#5000
1!
b0 #
b0 +
b0 :
0"
0,
05
b0 .
b0 1
b0 6
b0 4
1$
#10000
0$
#15000
1$
#20000
0&
0$
#25000
1$
#30000
b101 0
b101 3
b101 9
b11 /
b11 2
b11 8
1-
1%
b1100000101 '
b1100000101 *
b1100000101 7
1(
0$
#35000
1,
15
b1111 .
b1111 1
b1111 6
b1111 4
1$
#40000
0-
0(
0$
#45000
b1111 #
b1111 +
b1111 :
1"
0,
05
1$
#50000
0$
#55000
0"
1$
#60000
b11111110 0
b11111110 3
b11111110 9
b100 /
b100 2
b100 8
1-
0%
b10011111110 '
b10011111110 *
b10011111110 7
1(
0$
#65000
1,
15
b111 .
b111 1
b111 6
b111 4
1$
#70000
0-
0(
0$
#75000
0!
0,
05
b111 #
b111 +
b111 :
1"
1$
#80000
0$
#85000
1$
#90000
0$
#95000
1$
#100000
1!
1%
0$
#105000
0"
1$
